{
	"info": {
		"_postman_id": "f4db5954-9223-4b89-98f2-e04bb68dae7b",
		"name": "Nodejs-backend",
		"schema": "https://schema.getpostman.com/json/collection/v2.1.0/collection.json"
	},
	"item": [
		{
			"name": "Index Route",
			"request": {
				"method": "GET",
				"header": [],
				"url": {
					"raw": "http://127.0.0.1:3000/api/v1/",
					"protocol": "http",
					"host": [
						"127",
						"0",
						"0",
						"1"
					],
					"port": "3000",
					"path": [
						"api",
						"v1",
						""
					]
				},
				"description": "Index Endpoint\n\n> on successful response we will receive 200 HTTP response."
			},
			"response": [
				{
					"name": "Index Route",
					"originalRequest": {
						"method": "GET",
						"header": [],
						"url": {
							"raw": "http://127.0.0.1:3000/api/v1/",
							"protocol": "http",
							"host": [
								"127",
								"0",
								"0",
								"1"
							],
							"port": "3000",
							"path": [
								"api",
								"v1",
								""
							]
						}
					},
					"status": "OK",
					"code": 200,
					"_postman_previewlanguage": "json",
					"header": [
						{
							"key": "Content-Security-Policy",
							"value": "default-src 'self';base-uri 'self';block-all-mixed-content;font-src 'self' https: data:;form-action 'self';frame-ancestors 'self';img-src 'self' data:;object-src 'none';script-src 'self';script-src-attr 'none';style-src 'self' https: 'unsafe-inline';upgrade-insecure-requests"
						},
						{
							"key": "Cross-Origin-Embedder-Policy",
							"value": "require-corp"
						},
						{
							"key": "Cross-Origin-Opener-Policy",
							"value": "same-origin"
						},
						{
							"key": "Cross-Origin-Resource-Policy",
							"value": "same-origin"
						},
						{
							"key": "X-DNS-Prefetch-Control",
							"value": "off"
						},
						{
							"key": "Expect-CT",
							"value": "max-age=0"
						},
						{
							"key": "X-Frame-Options",
							"value": "SAMEORIGIN"
						},
						{
							"key": "Strict-Transport-Security",
							"value": "max-age=15552000; includeSubDomains"
						},
						{
							"key": "X-Download-Options",
							"value": "noopen"
						},
						{
							"key": "X-Content-Type-Options",
							"value": "nosniff"
						},
						{
							"key": "Origin-Agent-Cluster",
							"value": "?1"
						},
						{
							"key": "X-Permitted-Cross-Domain-Policies",
							"value": "none"
						},
						{
							"key": "Referrer-Policy",
							"value": "no-referrer"
						},
						{
							"key": "X-XSS-Protection",
							"value": "0"
						},
						{
							"key": "Access-Control-Allow-Origin",
							"value": "*"
						},
						{
							"key": "Content-Type",
							"value": "application/json; charset=utf-8"
						},
						{
							"key": "Content-Length",
							"value": "25"
						},
						{
							"key": "ETag",
							"value": "W/\"19-Kvlf0YPLf64v2+ivrCNjgBh9JaY\""
						},
						{
							"key": "Set-Cookie",
							"value": "connect.sid=s%3AX0Pxmy5e6GsX_x6T12n3XgycIABBV4CH.kPw8oBQ4Ob8APw9c9i4SihoggpGoxQkuaA8cchJJllc; Path=/; Expires=Fri, 07 Jan 2022 17:19:01 GMT; HttpOnly"
						},
						{
							"key": "Date",
							"value": "Thu, 06 Jan 2022 17:19:01 GMT"
						},
						{
							"key": "Connection",
							"value": "keep-alive"
						},
						{
							"key": "Keep-Alive",
							"value": "timeout=5"
						}
					],
					"cookie": [],
					"body": "{\n    \"msg\": \"Index home page\"\n}"
				}
			]
		},
		{
			"name": "Login Route",
			"request": {
				"method": "GET",
				"header": [],
				"url": {
					"raw": "http://127.0.0.1:3000/api/v1/login",
					"protocol": "http",
					"host": [
						"127",
						"0",
						"0",
						"1"
					],
					"port": "3000",
					"path": [
						"api",
						"v1",
						"login"
					]
				},
				"description": "Login Endpoint\n\n> On successful execution it will return a HTTP 200 success response."
			},
			"response": [
				{
					"name": "Login Route",
					"originalRequest": {
						"method": "GET",
						"header": [],
						"url": {
							"raw": "http://127.0.0.1:3000/api/v1/login",
							"protocol": "http",
							"host": [
								"127",
								"0",
								"0",
								"1"
							],
							"port": "3000",
							"path": [
								"api",
								"v1",
								"login"
							]
						}
					},
					"status": "OK",
					"code": 200,
					"_postman_previewlanguage": "json",
					"header": [
						{
							"key": "Content-Security-Policy",
							"value": "default-src 'self';base-uri 'self';block-all-mixed-content;font-src 'self' https: data:;form-action 'self';frame-ancestors 'self';img-src 'self' data:;object-src 'none';script-src 'self';script-src-attr 'none';style-src 'self' https: 'unsafe-inline';upgrade-insecure-requests"
						},
						{
							"key": "Cross-Origin-Embedder-Policy",
							"value": "require-corp"
						},
						{
							"key": "Cross-Origin-Opener-Policy",
							"value": "same-origin"
						},
						{
							"key": "Cross-Origin-Resource-Policy",
							"value": "same-origin"
						},
						{
							"key": "X-DNS-Prefetch-Control",
							"value": "off"
						},
						{
							"key": "Expect-CT",
							"value": "max-age=0"
						},
						{
							"key": "X-Frame-Options",
							"value": "SAMEORIGIN"
						},
						{
							"key": "Strict-Transport-Security",
							"value": "max-age=15552000; includeSubDomains"
						},
						{
							"key": "X-Download-Options",
							"value": "noopen"
						},
						{
							"key": "X-Content-Type-Options",
							"value": "nosniff"
						},
						{
							"key": "Origin-Agent-Cluster",
							"value": "?1"
						},
						{
							"key": "X-Permitted-Cross-Domain-Policies",
							"value": "none"
						},
						{
							"key": "Referrer-Policy",
							"value": "no-referrer"
						},
						{
							"key": "X-XSS-Protection",
							"value": "0"
						},
						{
							"key": "Access-Control-Allow-Origin",
							"value": "*"
						},
						{
							"key": "Content-Type",
							"value": "application/json; charset=utf-8"
						},
						{
							"key": "Content-Length",
							"value": "25"
						},
						{
							"key": "ETag",
							"value": "W/\"19-+PizMYFOKeN/Pq0zlY4MPL+OFqI\""
						},
						{
							"key": "Date",
							"value": "Thu, 06 Jan 2022 17:28:29 GMT"
						},
						{
							"key": "Connection",
							"value": "keep-alive"
						},
						{
							"key": "Keep-Alive",
							"value": "timeout=5"
						}
					],
					"cookie": [],
					"body": "{\n    \"msg\": \"login home page\"\n}"
				}
			]
		},
		{
			"name": "Logout Route",
			"request": {
				"method": "GET",
				"header": [],
				"url": {
					"raw": "http://127.0.0.1:3000/api/v1/logout",
					"protocol": "http",
					"host": [
						"127",
						"0",
						"0",
						"1"
					],
					"port": "3000",
					"path": [
						"api",
						"v1",
						"logout"
					]
				},
				"description": "Logout Endpoint\n\n> on successful execution we will get a HTTP 200 response."
			},
			"response": [
				{
					"name": "Logout Route",
					"originalRequest": {
						"method": "GET",
						"header": [],
						"url": {
							"raw": "http://127.0.0.1:3000/api/v1/logout",
							"protocol": "http",
							"host": [
								"127",
								"0",
								"0",
								"1"
							],
							"port": "3000",
							"path": [
								"api",
								"v1",
								"logout"
							]
						}
					},
					"status": "OK",
					"code": 200,
					"_postman_previewlanguage": "json",
					"header": [
						{
							"key": "Content-Security-Policy",
							"value": "default-src 'self';base-uri 'self';block-all-mixed-content;font-src 'self' https: data:;form-action 'self';frame-ancestors 'self';img-src 'self' data:;object-src 'none';script-src 'self';script-src-attr 'none';style-src 'self' https: 'unsafe-inline';upgrade-insecure-requests"
						},
						{
							"key": "Cross-Origin-Embedder-Policy",
							"value": "require-corp"
						},
						{
							"key": "Cross-Origin-Opener-Policy",
							"value": "same-origin"
						},
						{
							"key": "Cross-Origin-Resource-Policy",
							"value": "same-origin"
						},
						{
							"key": "X-DNS-Prefetch-Control",
							"value": "off"
						},
						{
							"key": "Expect-CT",
							"value": "max-age=0"
						},
						{
							"key": "X-Frame-Options",
							"value": "SAMEORIGIN"
						},
						{
							"key": "Strict-Transport-Security",
							"value": "max-age=15552000; includeSubDomains"
						},
						{
							"key": "X-Download-Options",
							"value": "noopen"
						},
						{
							"key": "X-Content-Type-Options",
							"value": "nosniff"
						},
						{
							"key": "Origin-Agent-Cluster",
							"value": "?1"
						},
						{
							"key": "X-Permitted-Cross-Domain-Policies",
							"value": "none"
						},
						{
							"key": "Referrer-Policy",
							"value": "no-referrer"
						},
						{
							"key": "X-XSS-Protection",
							"value": "0"
						},
						{
							"key": "Access-Control-Allow-Origin",
							"value": "*"
						},
						{
							"key": "Content-Type",
							"value": "application/json; charset=utf-8"
						},
						{
							"key": "Content-Length",
							"value": "28"
						},
						{
							"key": "ETag",
							"value": "W/\"1c-E2goMWm7iPNnI4W1QbGUpid7Ob8\""
						},
						{
							"key": "Date",
							"value": "Thu, 06 Jan 2022 17:29:20 GMT"
						},
						{
							"key": "Connection",
							"value": "keep-alive"
						},
						{
							"key": "Keep-Alive",
							"value": "timeout=5"
						}
					],
					"cookie": [],
					"body": "{\n    \"msg\": \"Logout successful.\"\n}"
				}
			]
		},
		{
			"name": "Signup Route",
			"request": {
				"method": "POST",
				"header": [],
				"body": {
					"mode": "raw",
					"raw": "{\n    \"name\": \"TestUser\",\n    \"email\": \"testuser@gmail.com\",\n    \"password\": \"abcdesadffgh\"\n}",
					"options": {
						"raw": {
							"language": "json"
						}
					}
				},
				"url": {
					"raw": "http://127.0.0.1:3000/api/v1/signup",
					"protocol": "http",
					"host": [
						"127",
						"0",
						"0",
						"1"
					],
					"port": "3000",
					"path": [
						"api",
						"v1",
						"signup"
					]
				},
				"description": "Signup Endpoint **POST**\n\n> the following endpoint will be used to register the users. The user form should gave the form data **name**, **email** and **password**.\n> \n> **POST** - request is sent for the following\n\nSuccess - store the user credentials and return the 200 success message.\n\nFailure - Share the failure details messages"
			},
			"response": [
				{
					"name": "Signup Route",
					"originalRequest": {
						"method": "POST",
						"header": [],
						"body": {
							"mode": "raw",
							"raw": "{\n    \"name\": \"temp\",\n    \"email\": \"temp@gmail.com\",\n    \"password\": \"abcdefgh\"\n}",
							"options": {
								"raw": {
									"language": "json"
								}
							}
						},
						"url": {
							"raw": "http://127.0.0.1:3000/api/v1/signup",
							"protocol": "http",
							"host": [
								"127",
								"0",
								"0",
								"1"
							],
							"port": "3000",
							"path": [
								"api",
								"v1",
								"signup"
							]
						}
					},
					"status": "Bad Request",
					"code": 400,
					"_postman_previewlanguage": "json",
					"header": [
						{
							"key": "Content-Security-Policy",
							"value": "default-src 'self';base-uri 'self';block-all-mixed-content;font-src 'self' https: data:;form-action 'self';frame-ancestors 'self';img-src 'self' data:;object-src 'none';script-src 'self';script-src-attr 'none';style-src 'self' https: 'unsafe-inline';upgrade-insecure-requests"
						},
						{
							"key": "Cross-Origin-Embedder-Policy",
							"value": "require-corp"
						},
						{
							"key": "Cross-Origin-Opener-Policy",
							"value": "same-origin"
						},
						{
							"key": "Cross-Origin-Resource-Policy",
							"value": "same-origin"
						},
						{
							"key": "X-DNS-Prefetch-Control",
							"value": "off"
						},
						{
							"key": "Expect-CT",
							"value": "max-age=0"
						},
						{
							"key": "X-Frame-Options",
							"value": "SAMEORIGIN"
						},
						{
							"key": "Strict-Transport-Security",
							"value": "max-age=15552000; includeSubDomains"
						},
						{
							"key": "X-Download-Options",
							"value": "noopen"
						},
						{
							"key": "X-Content-Type-Options",
							"value": "nosniff"
						},
						{
							"key": "Origin-Agent-Cluster",
							"value": "?1"
						},
						{
							"key": "X-Permitted-Cross-Domain-Policies",
							"value": "none"
						},
						{
							"key": "Referrer-Policy",
							"value": "no-referrer"
						},
						{
							"key": "X-XSS-Protection",
							"value": "0"
						},
						{
							"key": "Access-Control-Allow-Origin",
							"value": "*"
						},
						{
							"key": "Content-Type",
							"value": "application/json; charset=utf-8"
						},
						{
							"key": "Content-Length",
							"value": "49"
						},
						{
							"key": "ETag",
							"value": "W/\"31-TYOM+g99r3zyQOAiEAXmwv2+glE\""
						},
						{
							"key": "Date",
							"value": "Thu, 06 Jan 2022 17:29:45 GMT"
						},
						{
							"key": "Connection",
							"value": "keep-alive"
						},
						{
							"key": "Keep-Alive",
							"value": "timeout=5"
						}
					],
					"cookie": [],
					"body": "{\n    \"response\": [\n        {\n            \"msg\": \"Email Already Registered\"\n        }\n    ]\n}"
				},
				{
					"name": "Signup Route",
					"originalRequest": {
						"method": "POST",
						"header": [],
						"body": {
							"mode": "raw",
							"raw": "{\n    \"name\": \"TestUser\",\n    \"email\": \"testuser@gmail.com\",\n    \"password\": \"abcdesadffgh\"\n}",
							"options": {
								"raw": {
									"language": "json"
								}
							}
						},
						"url": {
							"raw": "http://127.0.0.1:3000/api/v1/signup",
							"protocol": "http",
							"host": [
								"127",
								"0",
								"0",
								"1"
							],
							"port": "3000",
							"path": [
								"api",
								"v1",
								"signup"
							]
						}
					},
					"status": "OK",
					"code": 200,
					"_postman_previewlanguage": "json",
					"header": [
						{
							"key": "Content-Security-Policy",
							"value": "default-src 'self';base-uri 'self';block-all-mixed-content;font-src 'self' https: data:;form-action 'self';frame-ancestors 'self';img-src 'self' data:;object-src 'none';script-src 'self';script-src-attr 'none';style-src 'self' https: 'unsafe-inline';upgrade-insecure-requests"
						},
						{
							"key": "Cross-Origin-Embedder-Policy",
							"value": "require-corp"
						},
						{
							"key": "Cross-Origin-Opener-Policy",
							"value": "same-origin"
						},
						{
							"key": "Cross-Origin-Resource-Policy",
							"value": "same-origin"
						},
						{
							"key": "X-DNS-Prefetch-Control",
							"value": "off"
						},
						{
							"key": "Expect-CT",
							"value": "max-age=0"
						},
						{
							"key": "X-Frame-Options",
							"value": "SAMEORIGIN"
						},
						{
							"key": "Strict-Transport-Security",
							"value": "max-age=15552000; includeSubDomains"
						},
						{
							"key": "X-Download-Options",
							"value": "noopen"
						},
						{
							"key": "X-Content-Type-Options",
							"value": "nosniff"
						},
						{
							"key": "Origin-Agent-Cluster",
							"value": "?1"
						},
						{
							"key": "X-Permitted-Cross-Domain-Policies",
							"value": "none"
						},
						{
							"key": "Referrer-Policy",
							"value": "no-referrer"
						},
						{
							"key": "X-XSS-Protection",
							"value": "0"
						},
						{
							"key": "Access-Control-Allow-Origin",
							"value": "*"
						},
						{
							"key": "Content-Type",
							"value": "application/json; charset=utf-8"
						},
						{
							"key": "Content-Length",
							"value": "27"
						},
						{
							"key": "ETag",
							"value": "W/\"1b-3vwY9c2NaOvUI4tDKjZBblhLAKw\""
						},
						{
							"key": "Date",
							"value": "Thu, 06 Jan 2022 17:33:04 GMT"
						},
						{
							"key": "Connection",
							"value": "keep-alive"
						},
						{
							"key": "Keep-Alive",
							"value": "timeout=5"
						}
					],
					"cookie": [],
					"body": "{\n    \"response\": \"User Created\"\n}"
				}
			]
		},
		{
			"name": "Weather-Forcast",
			"request": {
				"method": "GET",
				"header": [],
				"url": {
					"raw": "http://127.0.0.1:3000/api/v1/weather",
					"protocol": "http",
					"host": [
						"127",
						"0",
						"0",
						"1"
					],
					"port": "3000",
					"path": [
						"api",
						"v1",
						"weather"
					]
				},
				"description": "Weather Endpoint\n\n> The following API returns the weather details that are collected from the openweather API endpoints.\n> \n> **Location** and **unit** are fixed for the following API to **Bengaluru** and **Metrics**"
			},
			"response": [
				{
					"name": "Weather-Forcast",
					"originalRequest": {
						"method": "GET",
						"header": [],
						"url": {
							"raw": "http://127.0.0.1:3000/api/v1/weather",
							"protocol": "http",
							"host": [
								"127",
								"0",
								"0",
								"1"
							],
							"port": "3000",
							"path": [
								"api",
								"v1",
								"weather"
							]
						}
					},
					"status": "OK",
					"code": 200,
					"_postman_previewlanguage": "json",
					"header": [
						{
							"key": "Content-Security-Policy",
							"value": "default-src 'self';base-uri 'self';block-all-mixed-content;font-src 'self' https: data:;form-action 'self';frame-ancestors 'self';img-src 'self' data:;object-src 'none';script-src 'self';script-src-attr 'none';style-src 'self' https: 'unsafe-inline';upgrade-insecure-requests"
						},
						{
							"key": "Cross-Origin-Embedder-Policy",
							"value": "require-corp"
						},
						{
							"key": "Cross-Origin-Opener-Policy",
							"value": "same-origin"
						},
						{
							"key": "Cross-Origin-Resource-Policy",
							"value": "same-origin"
						},
						{
							"key": "X-DNS-Prefetch-Control",
							"value": "off"
						},
						{
							"key": "Expect-CT",
							"value": "max-age=0"
						},
						{
							"key": "X-Frame-Options",
							"value": "SAMEORIGIN"
						},
						{
							"key": "Strict-Transport-Security",
							"value": "max-age=15552000; includeSubDomains"
						},
						{
							"key": "X-Download-Options",
							"value": "noopen"
						},
						{
							"key": "X-Content-Type-Options",
							"value": "nosniff"
						},
						{
							"key": "Origin-Agent-Cluster",
							"value": "?1"
						},
						{
							"key": "X-Permitted-Cross-Domain-Policies",
							"value": "none"
						},
						{
							"key": "Referrer-Policy",
							"value": "no-referrer"
						},
						{
							"key": "X-XSS-Protection",
							"value": "0"
						},
						{
							"key": "Access-Control-Allow-Origin",
							"value": "*"
						},
						{
							"key": "Content-Type",
							"value": "application/json; charset=utf-8"
						},
						{
							"key": "Content-Length",
							"value": "2859"
						},
						{
							"key": "ETag",
							"value": "W/\"b2b-XszQcyPEoivCfxp9ba0yKTAaT08\""
						},
						{
							"key": "Date",
							"value": "Thu, 06 Jan 2022 17:34:52 GMT"
						},
						{
							"key": "Connection",
							"value": "keep-alive"
						},
						{
							"key": "Keep-Alive",
							"value": "timeout=5"
						}
					],
					"cookie": [],
					"body": "{\n    \"location\": \"Bengaluru\",\n    \"unit\": \"metric\",\n    \"count\": 40,\n    \"data\": [\n        {\n            \"date\": \"Thu Jan 06 2022 18:00:00\",\n            \"main\": \"Clouds\",\n            \"temp\": 293.96999999999997\n        },\n        {\n            \"date\": \"Thu Jan 06 2022 21:00:00\",\n            \"main\": \"Clouds\",\n            \"temp\": 292.71\n        },\n        {\n            \"date\": \"Fri Jan 07 2022 00:00:00\",\n            \"main\": \"Clouds\",\n            \"temp\": 290.79999999999995\n        },\n        {\n            \"date\": \"Fri Jan 07 2022 03:00:00\",\n            \"main\": \"Clouds\",\n            \"temp\": 290.78\n        },\n        {\n            \"date\": \"Fri Jan 07 2022 06:00:00\",\n            \"main\": \"Clouds\",\n            \"temp\": 296.4\n        },\n        {\n            \"date\": \"Fri Jan 07 2022 09:00:00\",\n            \"main\": \"Clouds\",\n            \"temp\": 299.72999999999996\n        },\n        {\n            \"date\": \"Fri Jan 07 2022 12:00:00\",\n            \"main\": \"Clouds\",\n            \"temp\": 298.45\n        },\n        {\n            \"date\": \"Fri Jan 07 2022 15:00:00\",\n            \"main\": \"Clouds\",\n            \"temp\": 294.88\n        },\n        {\n            \"date\": \"Fri Jan 07 2022 18:00:00\",\n            \"main\": \"Clouds\",\n            \"temp\": 292.07\n        },\n        {\n            \"date\": \"Fri Jan 07 2022 21:00:00\",\n            \"main\": \"Clear\",\n            \"temp\": 290.41999999999996\n        },\n        {\n            \"date\": \"Sat Jan 08 2022 00:00:00\",\n            \"main\": \"Clouds\",\n            \"temp\": 289.78999999999996\n        },\n        {\n            \"date\": \"Sat Jan 08 2022 03:00:00\",\n            \"main\": \"Clouds\",\n            \"temp\": 291.38\n        },\n        {\n            \"date\": \"Sat Jan 08 2022 06:00:00\",\n            \"main\": \"Clouds\",\n            \"temp\": 296.5\n        },\n        {\n            \"date\": \"Sat Jan 08 2022 09:00:00\",\n            \"main\": \"Clear\",\n            \"temp\": 299.98999999999995\n        },\n        {\n            \"date\": \"Sat Jan 08 2022 12:00:00\",\n            \"main\": \"Clouds\",\n            \"temp\": 299.21999999999997\n        },\n        {\n            \"date\": \"Sat Jan 08 2022 15:00:00\",\n            \"main\": \"Clouds\",\n            \"temp\": 295.67999999999995\n        },\n        {\n            \"date\": \"Sat Jan 08 2022 18:00:00\",\n            \"main\": \"Clouds\",\n            \"temp\": 292.65\n        },\n        {\n            \"date\": \"Sat Jan 08 2022 21:00:00\",\n            \"main\": \"Clear\",\n            \"temp\": 290.78999999999996\n        },\n        {\n            \"date\": \"Sun Jan 09 2022 00:00:00\",\n            \"main\": \"Clear\",\n            \"temp\": 290.08\n        },\n        {\n            \"date\": \"Sun Jan 09 2022 03:00:00\",\n            \"main\": \"Clouds\",\n            \"temp\": 292.77\n        },\n        {\n            \"date\": \"Sun Jan 09 2022 06:00:00\",\n            \"main\": \"Clear\",\n            \"temp\": 298.51\n        },\n        {\n            \"date\": \"Sun Jan 09 2022 09:00:00\",\n            \"main\": \"Clear\",\n            \"temp\": 301.27\n        },\n        {\n            \"date\": \"Sun Jan 09 2022 12:00:00\",\n            \"main\": \"Clouds\",\n            \"temp\": 300.09\n        },\n        {\n            \"date\": \"Sun Jan 09 2022 15:00:00\",\n            \"main\": \"Clouds\",\n            \"temp\": 295.64\n        },\n        {\n            \"date\": \"Sun Jan 09 2022 18:00:00\",\n            \"main\": \"Clouds\",\n            \"temp\": 292.76\n        },\n        {\n            \"date\": \"Sun Jan 09 2022 21:00:00\",\n            \"main\": \"Clouds\",\n            \"temp\": 291.34\n        },\n        {\n            \"date\": \"Mon Jan 10 2022 00:00:00\",\n            \"main\": \"Clouds\",\n            \"temp\": 290.48999999999995\n        },\n        {\n            \"date\": \"Mon Jan 10 2022 03:00:00\",\n            \"main\": \"Clear\",\n            \"temp\": 293.19\n        },\n        {\n            \"date\": \"Mon Jan 10 2022 06:00:00\",\n            \"main\": \"Clouds\",\n            \"temp\": 298.56\n        },\n        {\n            \"date\": \"Mon Jan 10 2022 09:00:00\",\n            \"main\": \"Clouds\",\n            \"temp\": 301.41999999999996\n        },\n        {\n            \"date\": \"Mon Jan 10 2022 12:00:00\",\n            \"main\": \"Clouds\",\n            \"temp\": 299.57\n        },\n        {\n            \"date\": \"Mon Jan 10 2022 15:00:00\",\n            \"main\": \"Clouds\",\n            \"temp\": 295.46\n        },\n        {\n            \"date\": \"Mon Jan 10 2022 18:00:00\",\n            \"main\": \"Clouds\",\n            \"temp\": 293.33\n        },\n        {\n            \"date\": \"Mon Jan 10 2022 21:00:00\",\n            \"main\": \"Clouds\",\n            \"temp\": 291.88\n        },\n        {\n            \"date\": \"Tue Jan 11 2022 00:00:00\",\n            \"main\": \"Clouds\",\n            \"temp\": 291.09999999999997\n        },\n        {\n            \"date\": \"Tue Jan 11 2022 03:00:00\",\n            \"main\": \"Clouds\",\n            \"temp\": 293.90999999999997\n        },\n        {\n            \"date\": \"Tue Jan 11 2022 06:00:00\",\n            \"main\": \"Clouds\",\n            \"temp\": 299.09999999999997\n        },\n        {\n            \"date\": \"Tue Jan 11 2022 09:00:00\",\n            \"main\": \"Clouds\",\n            \"temp\": 301.88\n        },\n        {\n            \"date\": \"Tue Jan 11 2022 12:00:00\",\n            \"main\": \"Clouds\",\n            \"temp\": 300.51\n        },\n        {\n            \"date\": \"Tue Jan 11 2022 15:00:00\",\n            \"main\": \"Clouds\",\n            \"temp\": 296.13\n        }\n    ]\n}"
				},
				{
					"name": "Weather-Forcast",
					"originalRequest": {
						"method": "GET",
						"header": [],
						"url": {
							"raw": "http://127.0.0.1:3000/api/v1/weather",
							"protocol": "http",
							"host": [
								"127",
								"0",
								"0",
								"1"
							],
							"port": "3000",
							"path": [
								"api",
								"v1",
								"weather"
							]
						}
					},
					"status": "OK",
					"code": 200,
					"_postman_previewlanguage": "json",
					"header": [
						{
							"key": "Content-Security-Policy",
							"value": "default-src 'self';base-uri 'self';block-all-mixed-content;font-src 'self' https: data:;form-action 'self';frame-ancestors 'self';img-src 'self' data:;object-src 'none';script-src 'self';script-src-attr 'none';style-src 'self' https: 'unsafe-inline';upgrade-insecure-requests"
						},
						{
							"key": "Cross-Origin-Embedder-Policy",
							"value": "require-corp"
						},
						{
							"key": "Cross-Origin-Opener-Policy",
							"value": "same-origin"
						},
						{
							"key": "Cross-Origin-Resource-Policy",
							"value": "same-origin"
						},
						{
							"key": "X-DNS-Prefetch-Control",
							"value": "off"
						},
						{
							"key": "Expect-CT",
							"value": "max-age=0"
						},
						{
							"key": "X-Frame-Options",
							"value": "SAMEORIGIN"
						},
						{
							"key": "Strict-Transport-Security",
							"value": "max-age=15552000; includeSubDomains"
						},
						{
							"key": "X-Download-Options",
							"value": "noopen"
						},
						{
							"key": "X-Content-Type-Options",
							"value": "nosniff"
						},
						{
							"key": "Origin-Agent-Cluster",
							"value": "?1"
						},
						{
							"key": "X-Permitted-Cross-Domain-Policies",
							"value": "none"
						},
						{
							"key": "Referrer-Policy",
							"value": "no-referrer"
						},
						{
							"key": "X-XSS-Protection",
							"value": "0"
						},
						{
							"key": "Access-Control-Allow-Origin",
							"value": "*"
						},
						{
							"key": "Content-Type",
							"value": "application/json; charset=utf-8"
						},
						{
							"key": "Content-Length",
							"value": "2859"
						},
						{
							"key": "ETag",
							"value": "W/\"b2b-XszQcyPEoivCfxp9ba0yKTAaT08\""
						},
						{
							"key": "Date",
							"value": "Thu, 06 Jan 2022 17:38:38 GMT"
						},
						{
							"key": "Connection",
							"value": "keep-alive"
						},
						{
							"key": "Keep-Alive",
							"value": "timeout=5"
						}
					],
					"cookie": [],
					"body": "{\n    \"location\": \"Bengaluru\",\n    \"unit\": \"metric\",\n    \"count\": 40,\n    \"data\": [\n        {\n            \"date\": \"Thu Jan 06 2022 18:00:00\",\n            \"main\": \"Clouds\",\n            \"temp\": 293.96999999999997\n        },\n        {\n            \"date\": \"Thu Jan 06 2022 21:00:00\",\n            \"main\": \"Clouds\",\n            \"temp\": 292.71\n        },\n        {\n            \"date\": \"Fri Jan 07 2022 00:00:00\",\n            \"main\": \"Clouds\",\n            \"temp\": 290.79999999999995\n        },\n        {\n            \"date\": \"Fri Jan 07 2022 03:00:00\",\n            \"main\": \"Clouds\",\n            \"temp\": 290.78\n        },\n        {\n            \"date\": \"Fri Jan 07 2022 06:00:00\",\n            \"main\": \"Clouds\",\n            \"temp\": 296.4\n        },\n        {\n            \"date\": \"Fri Jan 07 2022 09:00:00\",\n            \"main\": \"Clouds\",\n            \"temp\": 299.72999999999996\n        },\n        {\n            \"date\": \"Fri Jan 07 2022 12:00:00\",\n            \"main\": \"Clouds\",\n            \"temp\": 298.45\n        },\n        {\n            \"date\": \"Fri Jan 07 2022 15:00:00\",\n            \"main\": \"Clouds\",\n            \"temp\": 294.88\n        },\n        {\n            \"date\": \"Fri Jan 07 2022 18:00:00\",\n            \"main\": \"Clouds\",\n            \"temp\": 292.07\n        },\n        {\n            \"date\": \"Fri Jan 07 2022 21:00:00\",\n            \"main\": \"Clear\",\n            \"temp\": 290.41999999999996\n        },\n        {\n            \"date\": \"Sat Jan 08 2022 00:00:00\",\n            \"main\": \"Clouds\",\n            \"temp\": 289.78999999999996\n        },\n        {\n            \"date\": \"Sat Jan 08 2022 03:00:00\",\n            \"main\": \"Clouds\",\n            \"temp\": 291.38\n        },\n        {\n            \"date\": \"Sat Jan 08 2022 06:00:00\",\n            \"main\": \"Clouds\",\n            \"temp\": 296.5\n        },\n        {\n            \"date\": \"Sat Jan 08 2022 09:00:00\",\n            \"main\": \"Clear\",\n            \"temp\": 299.98999999999995\n        },\n        {\n            \"date\": \"Sat Jan 08 2022 12:00:00\",\n            \"main\": \"Clouds\",\n            \"temp\": 299.21999999999997\n        },\n        {\n            \"date\": \"Sat Jan 08 2022 15:00:00\",\n            \"main\": \"Clouds\",\n            \"temp\": 295.67999999999995\n        },\n        {\n            \"date\": \"Sat Jan 08 2022 18:00:00\",\n            \"main\": \"Clouds\",\n            \"temp\": 292.65\n        },\n        {\n            \"date\": \"Sat Jan 08 2022 21:00:00\",\n            \"main\": \"Clear\",\n            \"temp\": 290.78999999999996\n        },\n        {\n            \"date\": \"Sun Jan 09 2022 00:00:00\",\n            \"main\": \"Clear\",\n            \"temp\": 290.08\n        },\n        {\n            \"date\": \"Sun Jan 09 2022 03:00:00\",\n            \"main\": \"Clouds\",\n            \"temp\": 292.77\n        },\n        {\n            \"date\": \"Sun Jan 09 2022 06:00:00\",\n            \"main\": \"Clear\",\n            \"temp\": 298.51\n        },\n        {\n            \"date\": \"Sun Jan 09 2022 09:00:00\",\n            \"main\": \"Clear\",\n            \"temp\": 301.27\n        },\n        {\n            \"date\": \"Sun Jan 09 2022 12:00:00\",\n            \"main\": \"Clouds\",\n            \"temp\": 300.09\n        },\n        {\n            \"date\": \"Sun Jan 09 2022 15:00:00\",\n            \"main\": \"Clouds\",\n            \"temp\": 295.64\n        },\n        {\n            \"date\": \"Sun Jan 09 2022 18:00:00\",\n            \"main\": \"Clouds\",\n            \"temp\": 292.76\n        },\n        {\n            \"date\": \"Sun Jan 09 2022 21:00:00\",\n            \"main\": \"Clouds\",\n            \"temp\": 291.34\n        },\n        {\n            \"date\": \"Mon Jan 10 2022 00:00:00\",\n            \"main\": \"Clouds\",\n            \"temp\": 290.48999999999995\n        },\n        {\n            \"date\": \"Mon Jan 10 2022 03:00:00\",\n            \"main\": \"Clear\",\n            \"temp\": 293.19\n        },\n        {\n            \"date\": \"Mon Jan 10 2022 06:00:00\",\n            \"main\": \"Clouds\",\n            \"temp\": 298.56\n        },\n        {\n            \"date\": \"Mon Jan 10 2022 09:00:00\",\n            \"main\": \"Clouds\",\n            \"temp\": 301.41999999999996\n        },\n        {\n            \"date\": \"Mon Jan 10 2022 12:00:00\",\n            \"main\": \"Clouds\",\n            \"temp\": 299.57\n        },\n        {\n            \"date\": \"Mon Jan 10 2022 15:00:00\",\n            \"main\": \"Clouds\",\n            \"temp\": 295.46\n        },\n        {\n            \"date\": \"Mon Jan 10 2022 18:00:00\",\n            \"main\": \"Clouds\",\n            \"temp\": 293.33\n        },\n        {\n            \"date\": \"Mon Jan 10 2022 21:00:00\",\n            \"main\": \"Clouds\",\n            \"temp\": 291.88\n        },\n        {\n            \"date\": \"Tue Jan 11 2022 00:00:00\",\n            \"main\": \"Clouds\",\n            \"temp\": 291.09999999999997\n        },\n        {\n            \"date\": \"Tue Jan 11 2022 03:00:00\",\n            \"main\": \"Clouds\",\n            \"temp\": 293.90999999999997\n        },\n        {\n            \"date\": \"Tue Jan 11 2022 06:00:00\",\n            \"main\": \"Clouds\",\n            \"temp\": 299.09999999999997\n        },\n        {\n            \"date\": \"Tue Jan 11 2022 09:00:00\",\n            \"main\": \"Clouds\",\n            \"temp\": 301.88\n        },\n        {\n            \"date\": \"Tue Jan 11 2022 12:00:00\",\n            \"main\": \"Clouds\",\n            \"temp\": 300.51\n        },\n        {\n            \"date\": \"Tue Jan 11 2022 15:00:00\",\n            \"main\": \"Clouds\",\n            \"temp\": 296.13\n        }\n    ]\n}"
				}
			]
		},
		{
			"name": "News-Top-Headlines",
			"request": {
				"method": "GET",
				"header": [],
				"url": {
					"raw": "http://127.0.0.1:3000/api/v1/news?page=1",
					"protocol": "http",
					"host": [
						"127",
						"0",
						"0",
						"1"
					],
					"port": "3000",
					"path": [
						"api",
						"v1",
						"news"
					],
					"query": [
						{
							"key": "page",
							"value": "1"
						}
					]
				},
				"description": "News Endpoint\n\n> The following end point will fetch and share the latest news / Top headlines. We can share the page numbers as parameters to fetch the next page of news as well.\n\n> On successful response it will return HTTP 200 message and return the headline and the link to the headline."
			},
			"response": [
				{
					"name": "News-Top-Headlines",
					"originalRequest": {
						"method": "GET",
						"header": [],
						"url": {
							"raw": "http://127.0.0.1:3000/api/v1/news?page=1",
							"protocol": "http",
							"host": [
								"127",
								"0",
								"0",
								"1"
							],
							"port": "3000",
							"path": [
								"api",
								"v1",
								"news"
							],
							"query": [
								{
									"key": "page",
									"value": "1"
								}
							]
						}
					},
					"status": "OK",
					"code": 200,
					"_postman_previewlanguage": "json",
					"header": [
						{
							"key": "Content-Security-Policy",
							"value": "default-src 'self';base-uri 'self';block-all-mixed-content;font-src 'self' https: data:;form-action 'self';frame-ancestors 'self';img-src 'self' data:;object-src 'none';script-src 'self';script-src-attr 'none';style-src 'self' https: 'unsafe-inline';upgrade-insecure-requests"
						},
						{
							"key": "Cross-Origin-Embedder-Policy",
							"value": "require-corp"
						},
						{
							"key": "Cross-Origin-Opener-Policy",
							"value": "same-origin"
						},
						{
							"key": "Cross-Origin-Resource-Policy",
							"value": "same-origin"
						},
						{
							"key": "X-DNS-Prefetch-Control",
							"value": "off"
						},
						{
							"key": "Expect-CT",
							"value": "max-age=0"
						},
						{
							"key": "X-Frame-Options",
							"value": "SAMEORIGIN"
						},
						{
							"key": "Strict-Transport-Security",
							"value": "max-age=15552000; includeSubDomains"
						},
						{
							"key": "X-Download-Options",
							"value": "noopen"
						},
						{
							"key": "X-Content-Type-Options",
							"value": "nosniff"
						},
						{
							"key": "Origin-Agent-Cluster",
							"value": "?1"
						},
						{
							"key": "X-Permitted-Cross-Domain-Policies",
							"value": "none"
						},
						{
							"key": "Referrer-Policy",
							"value": "no-referrer"
						},
						{
							"key": "X-XSS-Protection",
							"value": "0"
						},
						{
							"key": "Access-Control-Allow-Origin",
							"value": "*"
						},
						{
							"key": "Content-Type",
							"value": "application/json; charset=utf-8"
						},
						{
							"key": "Content-Length",
							"value": "5318"
						},
						{
							"key": "ETag",
							"value": "W/\"14c6-vQoD9ABvETAf+f2eFLEyP1mG+5s\""
						},
						{
							"key": "Set-Cookie",
							"value": "connect.sid=s%3Af3-3Aba-vEJG_xNanaf9XjsMoj0ds_jn.GaUCXzI8I3UEVrETV%2FSmR6fnAFuVqQgDKX7cEih0hOs; Path=/; Expires=Fri, 07 Jan 2022 18:14:43 GMT; HttpOnly"
						},
						{
							"key": "Date",
							"value": "Thu, 06 Jan 2022 18:14:43 GMT"
						},
						{
							"key": "Connection",
							"value": "keep-alive"
						},
						{
							"key": "Keep-Alive",
							"value": "timeout=5"
						}
					],
					"cookie": [],
					"body": "{\n    \"count\": 20,\n    \"data\": [\n        {\n            \"headline\": \"India vs South Africa, 2nd Test, Day 4 Highlights: Dean Elgar Stars As South Africa Beat India To Level Series - NDTV Sports\",\n            \"link\": \"https://sports.ndtv.com/south-africa-vs-india-2021-22/india-vs-south-africa-2nd-test-day-4-live-score-updates-ind-vs-sa-johannesburg-test-2692078\"\n        },\n        {\n            \"headline\": \"Astronomers witness a dying star reach its explosive end - Phys.org\",\n            \"link\": \"https://phys.org/news/2022-01-astronomers-witness-dying-star-explosive.html\"\n        },\n        {\n            \"headline\": \"NASA shares visualisation video of Monkey Head Nebula, social media users left amazed - Firstpost\",\n            \"link\": \"https://www.firstpost.com/tech/news-analysis/nasa-shares-visualisation-video-of-monkey-head-nebula-social-media-users-left-amazed-10264541.html\"\n        },\n        {\n            \"headline\": \"Maharashtra records 36,265 fresh Covid cases, Mumbai sees highest-ever one-day jump - India Today\",\n            \"link\": \"https://www.indiatoday.in/coronavirus-outbreak/story/mumbai-covid-19-cases-deaths-daily-highest-ever-1896944-2022-01-06\"\n        },\n        {\n            \"headline\": \"India skewers China over letter to MPs over Tibet meet, Pangong Lake bridge - Hindustan Times\",\n            \"link\": \"https://www.hindustantimes.com/india-news/india-skewers-china-over-letter-to-mps-over-tibet-meet-pangong-lake-bridge-101641480993546.html\"\n        },\n        {\n            \"headline\": \"Punjab: 125 passengers of Italy-Amritsar flight test Covid positive on arrival - The Indian Express\",\n            \"link\": \"https://indianexpress.com/article/cities/amritsar/125-passengers-test-covid-positive-in-air-indias-italy-amritsar-flight-7709704/\"\n        },\n        {\n            \"headline\": \"On PM's Security Lapse, Sonia Gandhi Briefed By Punjab Chief Minister - NDTV\",\n            \"link\": \"https://www.ndtv.com/india-news/on-pms-security-lapse-sonia-gandhi-briefed-by-punjab-chief-minister-2693124\"\n        },\n        {\n            \"headline\": \"BREAKING | NEET-PG Counselling : Supreme Court To Pronounce Orders In EWS/OBC Quota Case Tomorrow - Live Law\",\n            \"link\": \"https://www.livelaw.in/top-stories/neet-pg-counselling-supreme-court-to-pronounce-orders-in-ewsobc-quota-case-tomorrow-188919\"\n        },\n        {\n            \"headline\": \"Covaxin does not have WHO’s emergency use listing for use in children - The Hindu\",\n            \"link\": \"https://news.google.com/__i/rss/rd/articles/CBMif2h0dHBzOi8vd3d3LnRoZWhpbmR1LmNvbS9uZXdzL25hdGlvbmFsL2NvdmF4aW4tZG9lcy1ub3QtaGF2ZS13aG9zLWVtZXJnZW5jeS11c2UtbGlzdGluZy1mb3ItdXNlLWluLWNoaWxkcmVuL2FydGljbGUzODE1MTY4MS5lY2XSAYQBaHR0cHM6Ly93d3cudGhlaGluZHUuY29tL25ld3MvbmF0aW9uYWwvY292YXhpbi1kb2VzLW5vdC1oYXZlLXdob3MtZW1lcmdlbmN5LXVzZS1saXN0aW5nLWZvci11c2UtaW4tY2hpbGRyZW4vYXJ0aWNsZTM4MTUxNjgxLmVjZS9hbXAv?oc=5\"\n        },\n        {\n            \"headline\": \"Maharashtra, Tamil Nadu Among First Covid Hotspots Of India: IIT Mandi Study - NDTV\",\n            \"link\": \"https://www.ndtv.com/education/maharashtra-tamil-nadu-among-first-covid-hotspots-of-india-iit-mandi-study\"\n        },\n        {\n            \"headline\": \"Sorry for the shade! James Webb Telescope blocks Sun, Moon, Earth on Twitter - India Today\",\n            \"link\": \"https://www.indiatoday.in/trending-news/story/sorry-for-the-shade-james-webb-telescope-blocks-sun-moon-earth-on-twitter-1896859-2022-01-06\"\n        },\n        {\n            \"headline\": \"Bears seize control as Sensex, Nifty close 1% lower: Factors that pulled markets lower - Moneycontrol.com\",\n            \"link\": \"https://www.moneycontrol.com/news/business/markets/hawkish-fed-surging-covid-cases-spook-investors-4-factors-that-are-pulling-markets-lower-7905341.html\"\n        },\n        {\n            \"headline\": \"Effective ways to find relief from joint pains in the cold weather - The Indian Express\",\n            \"link\": \"https://indianexpress.com/article/lifestyle/health/relief-from-joint-pains-cold-weather-winter-season-doctor-tips-7706429/\"\n        },\n        {\n            \"headline\": \"iQOO 9 series to launch in India soon, iQOO 7 Legend official phone for BGMI series - Business Insider India\",\n            \"link\": \"https://www.businessinsider.in/tech/mobile/news/iqoo-9-series-to-launch-in-india-soon-iqoo-7-legend-official-phone-for-bgmi-series/articleshow/88735138.cms\"\n        },\n        {\n            \"headline\": \"AIIMS director on Omicron safeguards: 'Don't panic but...' - Mint\",\n            \"link\": \"https://www.livemint.com/news/india/aiims-director-on-omicron-safeguards-don-t-panic-but-11641469711675.html\"\n        },\n        {\n            \"headline\": \"Cabinet approves MoU between India, Nepal for bridge construction over Mahakali river - Hindustan Times\",\n            \"link\": \"https://www.hindustantimes.com/india-news/cabinet-approves-mou-between-india-nepal-for-bridge-construction-over-mahakali-river-101641468315500.html\"\n        },\n        {\n            \"headline\": \"Asteroid 30 times more powerful than largest nuclear bomb: Why Apophis will be WATCHED when it passes Earth - DNA India\",\n            \"link\": \"https://www.dnaindia.com/science/report-asteroid-30-times-mightier-than-the-largest-nuclear-bomb-why-apophis-will-be-watched-when-it-passes-earth-2927168\"\n        },\n        {\n            \"headline\": \"Mukesh Ambani's Reliance Retail picks up 25.8% stake in Dunzo for $200 million - Economic Times\",\n            \"link\": \"https://economictimes.indiatimes.com/tech/startups/reliance-retail-picks-up-25-8-stake-in-dunzo-leads-240-million-funding/articleshow/88733921.cms\"\n        },\n        {\n            \"headline\": \"Valimai Release: Ajith Kumar, Boney Kapoor & H Vinoth in a paradox to take a tough call due to COVID-19 scare - PINKVILLA\",\n            \"link\": \"https://www.pinkvilla.com/entertainment/south/valimai-release-ajith-kumar-boney-kapoor-h-vinoth-paradox-take-tough-call-due-covid-19-scare-986518\"\n        },\n        {\n            \"headline\": \"[BREAKING] UPSC Civil Services: Delhi High Court Dismisses Plea To Postpone Mains Exam Amid Rising... - Live Law\",\n            \"link\": \"https://www.livelaw.in/top-stories/upsc-civil-services-mains-exam-delhi-high-court-188901\"\n        }\n    ]\n}"
				}
			]
		},
		{
			"name": "News-Query-Headlines",
			"request": {
				"method": "GET",
				"header": [],
				"url": {
					"raw": "http://127.0.0.1:3000/api/v1/news?search=apple&page=1",
					"protocol": "http",
					"host": [
						"127",
						"0",
						"0",
						"1"
					],
					"port": "3000",
					"path": [
						"api",
						"v1",
						"news"
					],
					"query": [
						{
							"key": "search",
							"value": "apple"
						},
						{
							"key": "page",
							"value": "1"
						}
					]
				},
				"description": "News Endpoint for query specific news\n\n> The following endpoint is used for fetching the keyword specific news results. the following can be send the page param to get the next pages for the same."
			},
			"response": [
				{
					"name": "News-Query-Headlines",
					"originalRequest": {
						"method": "GET",
						"header": [],
						"url": {
							"raw": "http://127.0.0.1:3000/api/v1/news?search=apple&page=1",
							"protocol": "http",
							"host": [
								"127",
								"0",
								"0",
								"1"
							],
							"port": "3000",
							"path": [
								"api",
								"v1",
								"news"
							],
							"query": [
								{
									"key": "search",
									"value": "apple"
								},
								{
									"key": "page",
									"value": "1"
								}
							]
						}
					},
					"status": "OK",
					"code": 200,
					"_postman_previewlanguage": "json",
					"header": [
						{
							"key": "Content-Security-Policy",
							"value": "default-src 'self';base-uri 'self';block-all-mixed-content;font-src 'self' https: data:;form-action 'self';frame-ancestors 'self';img-src 'self' data:;object-src 'none';script-src 'self';script-src-attr 'none';style-src 'self' https: 'unsafe-inline';upgrade-insecure-requests"
						},
						{
							"key": "Cross-Origin-Embedder-Policy",
							"value": "require-corp"
						},
						{
							"key": "Cross-Origin-Opener-Policy",
							"value": "same-origin"
						},
						{
							"key": "Cross-Origin-Resource-Policy",
							"value": "same-origin"
						},
						{
							"key": "X-DNS-Prefetch-Control",
							"value": "off"
						},
						{
							"key": "Expect-CT",
							"value": "max-age=0"
						},
						{
							"key": "X-Frame-Options",
							"value": "SAMEORIGIN"
						},
						{
							"key": "Strict-Transport-Security",
							"value": "max-age=15552000; includeSubDomains"
						},
						{
							"key": "X-Download-Options",
							"value": "noopen"
						},
						{
							"key": "X-Content-Type-Options",
							"value": "nosniff"
						},
						{
							"key": "Origin-Agent-Cluster",
							"value": "?1"
						},
						{
							"key": "X-Permitted-Cross-Domain-Policies",
							"value": "none"
						},
						{
							"key": "Referrer-Policy",
							"value": "no-referrer"
						},
						{
							"key": "X-XSS-Protection",
							"value": "0"
						},
						{
							"key": "Access-Control-Allow-Origin",
							"value": "*"
						},
						{
							"key": "Content-Type",
							"value": "application/json; charset=utf-8"
						},
						{
							"key": "Content-Length",
							"value": "3519"
						},
						{
							"key": "ETag",
							"value": "W/\"dbf-F11kNSdx4MOxzbVw6kJHXdp2A4k\""
						},
						{
							"key": "Date",
							"value": "Thu, 06 Jan 2022 18:18:31 GMT"
						},
						{
							"key": "Connection",
							"value": "keep-alive"
						},
						{
							"key": "Keep-Alive",
							"value": "timeout=5"
						}
					],
					"cookie": [],
					"body": "{\n    \"count\": 20,\n    \"data\": [\n        {\n            \"headline\": \"You Can Now Open Your Hotel Room Door With an iPhone, But Should You?\",\n            \"link\": \"https://lifehacker.com/you-can-now-open-your-hotel-room-door-with-an-iphone-b-1848185461\"\n        },\n        {\n            \"headline\": \"Apple brings SharePlay to macOS Monterey\",\n            \"link\": \"https://www.engadget.com/mac-os-monterey-shareplay-apple-music-voice-plan-youtube-192127598.html\"\n        },\n        {\n            \"headline\": \"Apple Hit With Lawsuit Claiming the Apple Watch Is Unsafe\",\n            \"link\": \"https://gizmodo.com/apple-hit-with-lawsuit-claiming-the-apple-watch-is-unsa-1848193383\"\n        },\n        {\n            \"headline\": \"Former Apple employee says she won’t withdraw her labor board complaint\",\n            \"link\": \"https://www.theverge.com/2021/12/9/22826620/apple-labor-cher-scarlett-settlement-nlrb-complaint\"\n        },\n        {\n            \"headline\": \"Apple Wallet’s hotel keycard support is now live, starting at Hyatt hotels\",\n            \"link\": \"https://www.engadget.com/apple-wallet-hotel-keycards-hyatt-launch-190013202.html\"\n        },\n        {\n            \"headline\": \"Texas Apple store closes due to COVID-19 outbreak\",\n            \"link\": \"https://www.engadget.com/apple-store-covid-19-outbreak-221248408.html\"\n        },\n        {\n            \"headline\": \"Apple snaps up a movie about Theranos founder Elizabeth Holmes\",\n            \"link\": \"https://www.engadget.com/apple-theranos-elizabeth-holmes-movie-200124528.html\"\n        },\n        {\n            \"headline\": \"#AppleToo organizer will no longer withdraw her labor board complaint\",\n            \"link\": \"https://www.engadget.com/appletoo-organizer-cher-scarlett-no-longer-withdraw-labor-board-complaint-062929530.html\"\n        },\n        {\n            \"headline\": \"Apple has become the world's first $3 trillion company\",\n            \"link\": \"https://techncruncher.blogspot.com/2022/01/apple-has-become-worlds-first-3.html\"\n        },\n        {\n            \"headline\": \"Apple removes mentions of controversial child abuse scanning from its site\",\n            \"link\": \"https://www.engadget.com/apple-removes-csam-mentions-on-website-151958410.html\"\n        },\n        {\n            \"headline\": \"AirPods Pro 2 may come with lossless audio and a charging case that makes sound\",\n            \"link\": \"https://www.theverge.com/2022/1/2/22863442/airpods-pro-2-lossless-audio-charging-case-sound\"\n        },\n        {\n            \"headline\": \"Apple delays full office reopening and promises $1,000 equipment bonuses\",\n            \"link\": \"https://www.theverge.com/2021/12/15/22838471/apple-delays-office-reopening-date-covid-19\"\n        },\n        {\n            \"headline\": \"Urgent Apple warning issued to 1.65BILLION iPad and iPhone users as privacy concerns mount – see if you are at risk\",\n            \"link\": \"https://techncruncher.blogspot.com/2022/01/urgent-apple-warning-issued-to.html\"\n        },\n        {\n            \"headline\": \"Apple Music's Siri-only plan is now available as iOS 15.2 rolls out\",\n            \"link\": \"https://www.engadget.com/apple-music-voice-only-siri-only-plan-ios-15-2-183416178.html\"\n        },\n        {\n            \"headline\": \"Apple Is Now Trying to Terrify You Into Opting For an LTE Apple Watch\",\n            \"link\": \"https://gizmodo.com/apple-is-now-trying-to-terrify-you-into-opting-for-an-l-1848298144\"\n        },\n        {\n            \"headline\": \"This App Will Tell Android Users If an AirTag Is Tracking Them\",\n            \"link\": \"https://lifehacker.com/this-app-will-tell-android-users-if-an-airtag-is-tracki-1848233717\"\n        },\n        {\n            \"headline\": \"They Make the Watches. You Change the Straps\",\n            \"link\": \"https://www.wired.com/story/watch-straps-fashion-apple/\"\n        },\n        {\n            \"headline\": \"How to Find All the Old Product Icons Apple Has Hidden in macOS\",\n            \"link\": \"https://lifehacker.com/how-to-find-all-the-old-product-icons-apple-has-hidden-1848301929\"\n        },\n        {\n            \"headline\": \"You can soon rate your favorite podcast on Spotify\",\n            \"link\": \"https://www.theverge.com/2021/12/16/22839449/spotify-podcast-star-ratings-update-review\"\n        },\n        {\n            \"headline\": \"The Apple Watch Series 7 is on sale for $349 right now\",\n            \"link\": \"https://www.engadget.com/apple-watch-series7-deal-sale-154504303.html\"\n        }\n    ]\n}"
				}
			]
		}
	]
}